[
  "Human",
  "Dog",
  "Fish",
  "Horse",
  "Cat",
  "Fly",
  "Bear",
  "Bird",
  "Fox",
  "Turkey",
  "Chicken",
  "Wolf",
  "Mouse",
  "Robin",
  "Tiger",
  "Seal",
  "Bat",
  "Lion",
  "Duck",
  "Sheep",
  "Spider",
  "Snake",
  "Pig",
  "Rat",
  "Ram",
  "Cow",
  "Eagle",
  "Monkey",
  "Buffalo",
  "Elephant",
  "Deer",
  "Shark",
  "Bee",
  "Rabbit",
  "Goat",
  "Whale",
  "Turtle",
  "Crane",
  "Butterfly",
  "Frog",
  "Penguin",
  "Swallow",
  "Persian",
  "Coral",
  "Hawk",
  "Guinea pig",
  "Ant",
  "Pony",
  "Owl",
  "Swan",
  "Crow",
  "Goose",
  "Insect",
  "Crab",
  "Dinosaur",
  "Worm",
  "Raven",
  "Squirrel",
  "Falcon",
  "Mole",
  "Camel",
  "Hare",
  "Lobster",
  "Dolphin",
  "Dove",
  "Donkey",
  "Leopard",
  "Moose",
  "Red panda",
  "Pigeon",
  "Lizard",
  "Mosquito",
  "Beaver",
  "Giant Panda",
  "Gorilla",
  "Ape",
  "Sponge",
  "Crocodile",
  "Parrot",
  "Ox",
  "Cobra",
  "Jaguar",
  "Octopus",
  "Panther",
  "Kangaroo",
  "Mule",
  "Sparrow",
  "Moth",
  "Peacock",
  "Snail",
  "Squid",
  "Zebra",
  "Scorpion",
  "Toad",
  "Bulldog",
  "Elk",
  "Otter",
  "Giraffe",
  "Boar",
  "Alligator",
  "Reindeer",
  "Wasp",
  "Hamster",
  "Goldfish",
  "Bison",
  "Salamander",
  "Piranha"
]
